{
  "mobiEnvironments": [
    {
      "name": "PayTV-1",
      "vcenter": "NewPayTV",
      "patternDatastorePath": "^/PAYTV-1/datastore/",
      "patternHypervisorPath": "^/PAYTV-1/host/",
      "patternVmPath": "^/PAYTV-1/vm/",
      "patternVmHost": "\\S+\\d+p\\d+"
    },
    {
      "name": "PayTV-2",
      "vcenter": "NewPayTV",
      "patternDatastorePath": "^/PAYTV-2/datastore/",
      "patternHypervisorPath": "^/PAYTV-2/host/",
      "patternVmPath": "^/PAYTV-2/vm/",
      "patternVmHost": "\\S+\\d+p\\d+"
    },
    {
      "name": "PayTV-SEGMENTERS",
      "vcenter": "NewPayTV",
      "patternDatastorePath": "^/PAYTV-SEGMENTERS/datastore/",
      "patternHypervisorPath": "^/PAYTV-SEGMENTERS/host/",
      "patternVmPath": "^/PAYTV-SEGMENTERS/vm/",
      "patternVmHost": "\\S+\\d+p\\d+"
    },
    {
      "name": "PayTV-INFRA",
      "vcenter": "NewPayTV",
      "patternDatastorePath": "^/INFRA/datastore/",
      "patternHypervisorPath": "^/INFRA/host/",
      "patternVmPath": "^/INFRA/vm/",
      "patternVmHost": "\\S+\\d+p\\d+"
    },
    {
      "name": "PayTV-SHARED",
      "vcenter": "NewPayTV",
      "patternDatastorePath": "^/PAYTV-SHARED/datastore/",
      "patternHypervisorPath": "^/PAYTV-SHARED/host/",
      "patternVmPath": "^/PAYTV-SHARED/vm/",
      "patternVmHost": "\\S+\\d+p\\d+"
    },
    {
      "name": "PayTV-INT",
      "vcenter": "NewPayTV",
      "patternDatastorePath": "^/PAYTV-INT/datastore/",
      "patternHypervisorPath": "^/PAYTV-INT/host/",
      "patternVmPath": "^/PAYTV-INT/vm/",
      "patternVmHost": "\\S+\\d+p\\d+"
    },
    {
      "name": "PayTV-PSR",
      "vcenter": "NewPayTV",
      "patternDatastorePath": "^/PAYTV-PSR/datastore/",
      "patternHypervisorPath": "^/PAYTV-PSR/host/",
      "patternVmPath": "^/PAYTV-PSR/vm/",
      "patternVmHost": "\\S+\\d+p\\d+"
    },
    {
      "name": "PayTV-STAGING",
      "vcenter": "NewPayTV",
      "patternDatastorePath": "^/PAYTV-STAGING/datastore/",
      "patternHypervisorPath": "^/PAYTV-STAGING/host/",
      "patternVmPath": "^/PAYTV-STAGING/vm/",
      "patternVmHost": "\\S+\\d+p\\d+"
    },
    {
      "name": "PayTV-DR",
      "vcenter": "ATL-DR",
      "patternDatastorePath": "^/Datacenter/host/datastore/DR_PayTV/",
      "patternHypervisorPath": "^/Datacenter/host/DR_PayTV/",
      "patternVmPath": "^/Datacenter/vm/",
      "patternVmHost": "\\S+\\d+p\\d+"
    },
    {
      "name": "PayTV-DEV",
      "vcenter": "OldPayTV",
      "patternDatastorePath": "^/PAYTV-DEV/datastore/",
      "patternHypervisorPath": "^/PAYTV-DEV/host/",
      "patternVmPath": "^/PAYTV-DEV/vm/",
      "patternVmHost": "\\S+\\d+p\\d+"
    },
    {
      "name": "Integration-MSP",
      "vcenter": "OldPayTV",
      "patternDatastorePath": "^/INT-MSP/datastore/Integration-msp Cluster/",
      "patternHypervisorPath": "^/INT-MSP/host/Integration-msp Cluster/",
      "patternVmPath": "^/INT-MSP/vm/",
      "patternVmHost": "\\S+\\d+p\\d+"
    },
    {
      "name": "Dev",
      "vcenter": "OldPayTV",
      "patternDatastorePath": "^/DEV/host/datastore/DEV/",
      "patternHypervisorPath": "^/DEV/host/DEV/",
      "patternVmPath": "^/DEV/vm/",
      "patternVmHost": "\\S+\\d+p\\d+"
    },
    {
      "name": "Arvig-PROD",
      "vcenter": "Arvig",
      "patternDatastorePath": "^/MobiTV/datastore/RR",
      "patternHypervisorPath": "^/MobiTV/host/RR",
      "patternVmPath": "^/MobiTV/vm/Prod/",
      "patternVmHost": "\\S+\\d+p\\d+"
    },
    {
      "name": "Arvig-STAGING",
      "vcenter": "Arvig",
      "patternDatastorePath": "^/MobiTV/datastore/Staging/",
      "patternHypervisorPath": "^/MobiTV/host/Staging/",
      "patternVmPath": "^/MobiTV/vm/Lab/",
      "patternVmHost": "\\S+\\d+p\\d+"
    },
    {
      "name": "Comporium-PROD",
      "vcenter": "Comporium",
      "patternDatastorePath": "^/MobiTV-Production/datastore/",
      "patternHypervisorPath": "^/MobiTV-Production/host/",
      "patternVmPath": "^/MobiTV-Production/vm/",
      "patternVmHost": "\\S+\\d+p\\d+"
    },
    {
      "name": "Comporium-STAGING",
      "vcenter": "Comporium",
      "patternDatastorePath": "^/MobiTV-Staging/datastore/",
      "patternHypervisorPath": "^/MobiTV-Staging/host/",
      "patternVmPath": "^/MobiTV-Staging/vm/",
      "patternVmHost": "\\S+\\d+p\\d+"
    },
    {
      "name": "CSpire-PROD",
      "vcenter": "CSpire",
      "patternDatastorePath": "^/pib1/datastore/",
      "patternHypervisorPath": "^/pib1/host/Prod Cluster",
      "patternVmPath": "^/pib1/vm/",
      "patternVmHost": "\\S+\\d+p\\d+"
    },
    {
      "name": "CSpire-STAGING",
      "vcenter": "CSpire",
      "patternDatastorePath": "^/pib1/datastore/",
      "patternHypervisorPath": "^/pib1/host/Staging_Cluster",
      "patternVmPath": "^/pib1/vm/",
      "patternVmHost": "\\S+\\d+p\\d+"
    },
    {
      "name": "EPB-PROD",
      "vcenter": "EPB",
      "patternDatastorePath": "^/EPB.TV/datastore/MobiTV Production",
      "patternHypervisorPath": "^/EPB.TV/host/MobiTV Production",
      "patternVmPath": "^/EPB.TV/vm/MobiTV-Servers",
      "patternVmHost": "\\S+\\d+p\\d+"
    },
    {
      "name": "EPB-Staging",
      "vcenter": "EPB",
      "patternDatastorePath": "^/EPB.TV/datastore/MobiTV Staging",
      "patternHypervisorPath": "^/EPB.TV/host/MobiTV Staging",
      "patternVmPath": "^/EPB.TV/vm/[^/]+staging",
      "patternVmHost": "\\S+\\d+p\\d+"
    },
    {
      "name": "EZV-PROD",
      "vcenter": "DirectLink_EZV-PROD",
      "patternDatastorePath": "^/Canby/datastore/",
      "patternHypervisorPath": "^/Canby/host/",
      "patternVmPath": "^/Canby/vm/",
      "patternVmHost": "\\S+\\d+p\\d+"
    },
    {
      "name": "EZV-STAGING",
      "vcenter": "DirectLink_EZV-STAGING",
      "patternDatastorePath": "^/Datacenter/datastore",
      "patternHypervisorPath": "^/Datacenter/host",
      "patternVmPath": "^/Datacenter/vm",
      "patternVmHost": "\\S+\\d+p\\d+"
    },
    {
      "name": "Lumos-PROD",
      "vcenter": "Lumos",
      "patternDatastorePath": "^/Lumos TV/datastore/",
      "patternHypervisorPath": "^/Lumos TV/host/",
      "patternVmPath": "^/Lumos TV/vm/",
      "patternVmHost": "\\S+\\d+p\\d+"
    },
    {
      "name": "TMobile-PROD",
      "vcenter": "NewPayTV",
      "patternDatastorePath": "^/TMOBILE/datastore/",
      "patternHypervisorPath": "^/TMOBILE/host/",
      "patternVmPath": "^/TMOBILE/vm/",
      "patternVmHost": "\\S+\\d+p\\d+"
    },
    {
      "name": "TMobile-DR",
      "vcenter": "DR-TMOBILE",
      "patternDatastorePath": "^/DR-TMOBILE/datastore/",
      "patternHypervisorPath": "^/DR-TMOBILE/host/",
      "patternVmPath": "^/DR-TMOBILE/vm/",
      "patternVmHost": "\\S+\\d+p\\d+"
    },
    {
      "name": "MSG-PROD",
      "vcenter": "MSG",
      "patternDatastorePath": "^/MobiDC/datastore/[^/]+Cluster/",
      "patternHypervisorPath": "^/MobiDC/host/[^/]+Cluster/",
      "patternVmPath": "^/MobiDC/vm/",
      "patternVmHost": "\\S+\\d+p\\d+"
    },
    {
      "name": "MSG-STAGING",
      "vcenter": "MSG",
      "patternDatastorePath": "^/MobiDC/datastore/STAGING",
      "patternHypervisorPath": "^/MobiDC/host/STAGING",
      "patternVmPath": "^/MobiDC/vm/STAGING/",
      "patternVmHost": "\\S+\\d+p\\d+"
    }
  ]
}